# humanstxt.org

####= Humans Text File
##===========================================================================##

## The humans responsible & technology colophon

##== Team ====================================================================#

  Name: NAME
  Role: ROLE
  Email: EMAIL
  GitHub: https://github.com/USERNAME
  Website: https://WEBSITE/
  LinkedIn: https://www.linkedin.com/in/USERNAME
  Twitter: https://twitter.com/USERNAME
  Location: AREA

##== Thanks ==================================================================#

  ##===== TITLE Team =====##
    Name: NAME
    Role: ROLE
    Email: EMAIL
    GitHub: https://github.com/USERNAME
    Website: https://WEBSITE/
    LinkedIn: https://www.linkedin.com/in/USERNAME
    Twitter: https://twitter.com/USERNAME
    Location: AREA

    Name: NAME
    Role: ROLE
    Email: EMAIL
    GitHub: https://github.com/USERNAME
    Website: https://WEBSITE/
    LinkedIn: https://www.linkedin.com/in/USERNAME
    Twitter: https://twitter.com/USERNAME
    Location: AREA

##== Info ====================================================================#

  Last update: 20YY/MM/DD
  Languages: LANGUAGES
  Components: TECHNOLOGIES
  Development tools: APPLICATIONS
