# http://www.robotstxt.org/

####= Web Robot Instructions
##===========================================================================##

## To allow all robots complete site access, uncomment the next two lines:
# User-agent: *
# Disallow:

## Or...

## To ban all robots from the entire server, uncomment the next two lines:
# User-agent: *
# Disallow: /
